{
    "key": "group_5c30b485affed",
    "title": "Google Tagmanager",
    "location": [
        [
            {
                "param": "options_page",
                "operator": "==",
                "value": "site-options"
            }
        ]
    ],
    "menu_order": 9,
    "position": "normal",
    "style": "default",
    "label_placement": "top",
    "instruction_placement": "label",
    "hide_on_screen": "",
    "active": 1,
    "description": "",
    "modified": 1546938642,
    "fields": [
        {
            "key": "field_5c30b485e8d2e",
            "label": "Tracking-ID",
            "name": "google-tagmanager-id",
            "type": "text",
            "instructions": "If you are using Google Tagmanager you can use this field to add your tracking ID. Do not use both Google Tagmanager and Google Analytics fields.",
            "required": 0,
            "conditional_logic": 0,
            "wrapper": {
                "width": "",
                "class": "",
                "id": ""
            },
            "default_value": "",
            "placeholder": "",
            "prepend": "",
            "append": "",
            "maxlength": ""
        }
    ]
}