{
    "key": "group_5ef72b328c703",
    "title": "Contact",
    "fields": [
        {
            "key": "field_5ef72b91b8fc5",
            "label": "Adres",
            "name": "adres",
            "type": "wysiwyg",
            "instructions": "",
            "required": 0,
            "conditional_logic": 0,
            "wrapper": {
                "width": "",
                "class": "",
                "id": ""
            },
            "default_value": "",
            "tabs": "all",
            "toolbar": "full",
            "media_upload": 0,
            "delay": 0
        },
        {
            "key": "field_5ef72be4b8fc6",
            "label": "contactinformatie",
            "name": "contactinformatie",
            "type": "group",
            "instructions": "",
            "required": 0,
            "conditional_logic": 0,
            "wrapper": {
                "width": "33.3",
                "class": "",
                "id": ""
            },
            "layout": "block",
            "sub_fields": [
                {
                    "key": "field_5ef72c19b8fc7",
                    "label": "Naam",
                    "name": "naam",
                    "type": "text",
                    "instructions": "",
                    "required": 0,
                    "conditional_logic": 0,
                    "wrapper": {
                        "width": "",
                        "class": "",
                        "id": ""
                    },
                    "default_value": "",
                    "placeholder": "",
                    "prepend": "",
                    "append": "",
                    "maxlength": ""
                },
                {
                    "key": "field_5ef72c3fb8fc9",
                    "label": "soort",
                    "name": "soort",
                    "type": "select",
                    "instructions": "",
                    "required": 0,
                    "conditional_logic": 0,
                    "wrapper": {
                        "width": "40",
                        "class": "",
                        "id": ""
                    },
                    "choices": {
                        "text": "Normale tekst",
                        "phone": "Telefoonnummer",
                        "mail": "E-mailadres",
                        "social": "Social media"
                    },
                    "default_value": [
                        "text"
                    ],
                    "allow_null": 0,
                    "multiple": 0,
                    "ui": 0,
                    "return_format": "value",
                    "ajax": 0,
                    "placeholder": ""
                },
                {
                    "key": "field_5ef72c1eb8fc8",
                    "label": "Waarde",
                    "name": "waarde",
                    "type": "text",
                    "instructions": "",
                    "required": 0,
                    "conditional_logic": [
                        [
                            {
                                "field": "field_5ef72c3fb8fc9",
                                "operator": "!=",
                                "value": "social"
                            }
                        ]
                    ],
                    "wrapper": {
                        "width": "60",
                        "class": "",
                        "id": ""
                    },
                    "default_value": "",
                    "placeholder": "",
                    "prepend": "",
                    "append": "",
                    "maxlength": ""
                },
                {
                    "key": "field_5ef72c95b8fca",
                    "label": "socials",
                    "name": "socials",
                    "type": "repeater",
                    "instructions": "",
                    "required": 0,
                    "conditional_logic": [
                        [
                            {
                                "field": "field_5ef72c3fb8fc9",
                                "operator": "==",
                                "value": "social"
                            }
                        ]
                    ],
                    "wrapper": {
                        "width": "100",
                        "class": "",
                        "id": ""
                    },
                    "collapsed": "",
                    "min": 0,
                    "max": 6,
                    "layout": "table",
                    "button_label": "social media link toevoegen",
                    "sub_fields": [
                        {
                            "key": "field_5ef72cb9b8fcc",
                            "label": "platform",
                            "name": "platform",
                            "type": "select",
                            "instructions": "",
                            "required": 1,
                            "conditional_logic": 0,
                            "wrapper": {
                                "width": "30",
                                "class": "",
                                "id": ""
                            },
                            "choices": {
                                "linkedin": "LinkedIn",
                                "facebook": "facebook",
                                "instagram": "instagram"
                            },
                            "default_value": [],
                            "allow_null": 0,
                            "multiple": 0,
                            "ui": 0,
                            "return_format": "value",
                            "ajax": 0,
                            "placeholder": ""
                        },
                        {
                            "key": "field_5ef72cabb8fcb",
                            "label": "url",
                            "name": "url",
                            "type": "text",
                            "instructions": "",
                            "required": 1,
                            "conditional_logic": 0,
                            "wrapper": {
                                "width": "70",
                                "class": "",
                                "id": ""
                            },
                            "default_value": "",
                            "placeholder": "",
                            "prepend": "",
                            "append": "",
                            "maxlength": ""
                        }
                    ]
                }
            ]
        },
        {
            "key": "field_5ef72f872a923",
            "label": "contactinformatie 2",
            "name": "contactinformatie_2",
            "type": "group",
            "instructions": "",
            "required": 0,
            "conditional_logic": 0,
            "wrapper": {
                "width": "33.3",
                "class": "",
                "id": ""
            },
            "layout": "block",
            "sub_fields": [
                {
                    "key": "field_5ef72f872a924",
                    "label": "Naam",
                    "name": "naam",
                    "type": "text",
                    "instructions": "",
                    "required": 0,
                    "conditional_logic": 0,
                    "wrapper": {
                        "width": "",
                        "class": "",
                        "id": ""
                    },
                    "default_value": "",
                    "placeholder": "",
                    "prepend": "",
                    "append": "",
                    "maxlength": ""
                },
                {
                    "key": "field_5ef72f872a925",
                    "label": "soort",
                    "name": "soort",
                    "type": "select",
                    "instructions": "",
                    "required": 0,
                    "conditional_logic": 0,
                    "wrapper": {
                        "width": "40",
                        "class": "",
                        "id": ""
                    },
                    "choices": {
                        "text": "Normale tekst",
                        "phone": "Telefoonnummer",
                        "mail": "E-mailadres",
                        "social": "Social media"
                    },
                    "default_value": [
                        "text"
                    ],
                    "allow_null": 0,
                    "multiple": 0,
                    "ui": 0,
                    "ajax": 0,
                    "return_format": "value",
                    "placeholder": ""
                },
                {
                    "key": "field_5ef72f882a926",
                    "label": "Waarde",
                    "name": "waarde",
                    "type": "text",
                    "instructions": "",
                    "required": 0,
                    "conditional_logic": [
                        [
                            {
                                "field": "field_5ef72f872a925",
                                "operator": "!=",
                                "value": "social"
                            }
                        ]
                    ],
                    "wrapper": {
                        "width": "60",
                        "class": "",
                        "id": ""
                    },
                    "default_value": "",
                    "placeholder": "",
                    "prepend": "",
                    "append": "",
                    "maxlength": ""
                },
                {
                    "key": "field_5ef72f882a927",
                    "label": "socials",
                    "name": "socials",
                    "type": "repeater",
                    "instructions": "",
                    "required": 0,
                    "conditional_logic": [
                        [
                            {
                                "field": "field_5ef72f872a925",
                                "operator": "==",
                                "value": "social"
                            }
                        ]
                    ],
                    "wrapper": {
                        "width": "100",
                        "class": "",
                        "id": ""
                    },
                    "collapsed": "",
                    "min": 0,
                    "max": 6,
                    "layout": "table",
                    "button_label": "social media link toevoegen",
                    "sub_fields": [
                        {
                            "key": "field_5ef72f882a928",
                            "label": "platform",
                            "name": "platform",
                            "type": "select",
                            "instructions": "",
                            "required": 1,
                            "conditional_logic": 0,
                            "wrapper": {
                                "width": "30",
                                "class": "",
                                "id": ""
                            },
                            "choices": {
                                "linkedin": "LinkedIn",
                                "facebook": "facebook",
                                "instagram": "instagram"
                            },
                            "default_value": [],
                            "allow_null": 0,
                            "multiple": 0,
                            "ui": 0,
                            "ajax": 0,
                            "return_format": "value",
                            "placeholder": ""
                        },
                        {
                            "key": "field_5ef72f882a929",
                            "label": "url",
                            "name": "url",
                            "type": "text",
                            "instructions": "",
                            "required": 1,
                            "conditional_logic": 0,
                            "wrapper": {
                                "width": "70",
                                "class": "",
                                "id": ""
                            },
                            "default_value": "",
                            "placeholder": "",
                            "prepend": "",
                            "append": "",
                            "maxlength": ""
                        }
                    ]
                }
            ]
        },
        {
            "key": "field_5ef72f8b2a92a",
            "label": "contactinformatie 3",
            "name": "contactinformatie_3",
            "type": "group",
            "instructions": "",
            "required": 0,
            "conditional_logic": 0,
            "wrapper": {
                "width": "33.3",
                "class": "",
                "id": ""
            },
            "layout": "block",
            "sub_fields": [
                {
                    "key": "field_5ef72f8b2a92b",
                    "label": "Naam",
                    "name": "naam",
                    "type": "text",
                    "instructions": "",
                    "required": 0,
                    "conditional_logic": 0,
                    "wrapper": {
                        "width": "",
                        "class": "",
                        "id": ""
                    },
                    "default_value": "",
                    "placeholder": "",
                    "prepend": "",
                    "append": "",
                    "maxlength": ""
                },
                {
                    "key": "field_5ef72f8b2a92c",
                    "label": "soort",
                    "name": "soort",
                    "type": "select",
                    "instructions": "",
                    "required": 0,
                    "conditional_logic": 0,
                    "wrapper": {
                        "width": "40",
                        "class": "",
                        "id": ""
                    },
                    "choices": {
                        "text": "Normale tekst",
                        "phone": "Telefoonnummer",
                        "mail": "E-mailadres",
                        "social": "Social media"
                    },
                    "default_value": [
                        "text"
                    ],
                    "allow_null": 0,
                    "multiple": 0,
                    "ui": 0,
                    "ajax": 0,
                    "return_format": "value",
                    "placeholder": ""
                },
                {
                    "key": "field_5ef72f8b2a92d",
                    "label": "Waarde",
                    "name": "waarde",
                    "type": "text",
                    "instructions": "",
                    "required": 0,
                    "conditional_logic": [
                        [
                            {
                                "field": "field_5ef72f8b2a92c",
                                "operator": "!=",
                                "value": "social"
                            }
                        ]
                    ],
                    "wrapper": {
                        "width": "60",
                        "class": "",
                        "id": ""
                    },
                    "default_value": "",
                    "placeholder": "",
                    "prepend": "",
                    "append": "",
                    "maxlength": ""
                },
                {
                    "key": "field_5ef72f8b2a92e",
                    "label": "socials",
                    "name": "socials",
                    "type": "repeater",
                    "instructions": "",
                    "required": 0,
                    "conditional_logic": [
                        [
                            {
                                "field": "field_5ef72f8b2a92c",
                                "operator": "==",
                                "value": "social"
                            }
                        ]
                    ],
                    "wrapper": {
                        "width": "100",
                        "class": "",
                        "id": ""
                    },
                    "collapsed": "",
                    "min": 0,
                    "max": 6,
                    "layout": "table",
                    "button_label": "social media link toevoegen",
                    "sub_fields": [
                        {
                            "key": "field_5ef72f8b2a92f",
                            "label": "platform",
                            "name": "platform",
                            "type": "select",
                            "instructions": "",
                            "required": 1,
                            "conditional_logic": 0,
                            "wrapper": {
                                "width": "30",
                                "class": "",
                                "id": ""
                            },
                            "choices": {
                                "linkedin": "LinkedIn",
                                "facebook": "facebook",
                                "instagram": "instagram"
                            },
                            "default_value": [],
                            "allow_null": 0,
                            "multiple": 0,
                            "ui": 0,
                            "ajax": 0,
                            "return_format": "value",
                            "placeholder": ""
                        },
                        {
                            "key": "field_5ef72f8b2a930",
                            "label": "url",
                            "name": "url",
                            "type": "text",
                            "instructions": "",
                            "required": 1,
                            "conditional_logic": 0,
                            "wrapper": {
                                "width": "70",
                                "class": "",
                                "id": ""
                            },
                            "default_value": "",
                            "placeholder": "",
                            "prepend": "",
                            "append": "",
                            "maxlength": ""
                        }
                    ]
                }
            ]
        },
        {
            "key": "field_5ef72d0bed09d",
            "label": "Formulier titel",
            "name": "form_title",
            "type": "text",
            "instructions": "",
            "required": 0,
            "conditional_logic": 0,
            "wrapper": {
                "width": "",
                "class": "",
                "id": ""
            },
            "default_value": "",
            "placeholder": "",
            "prepend": "",
            "append": "",
            "maxlength": ""
        }
    ],
    "location": [
        [
            {
                "param": "page",
                "operator": "==",
                "value": "43"
            }
        ]
    ],
    "menu_order": 0,
    "position": "acf_after_title",
    "style": "default",
    "label_placement": "top",
    "instruction_placement": "label",
    "hide_on_screen": "",
    "active": 1,
    "description": "",
    "modified": 1593257973
}