{
    "key": "group_5ead7c33e06c9",
    "title": "project",
    "fields": [
        {
            "key": "field_5f118830fa571",
            "label": "Project informatie",
            "name": "",
            "type": "tab",
            "instructions": "",
            "required": 0,
            "conditional_logic": 0,
            "wrapper": {
                "width": "",
                "class": "",
                "id": ""
            },
            "placement": "top",
            "endpoint": 0
        },
        {
            "key": "field_5f118a4047637",
            "label": "Toon in overzicht",
            "name": "toon_in_overzicht",
            "type": "true_false",
            "instructions": "",
            "required": 0,
            "conditional_logic": 0,
            "wrapper": {
                "width": "50",
                "class": "",
                "id": ""
            },
            "message": "",
            "default_value": 1,
            "ui": 1,
            "ui_on_text": "",
            "ui_off_text": ""
        },
        {
            "key": "field_5eedd149e8290",
            "label": "Onderdeel",
            "name": "tag",
            "type": "select",
            "instructions": "",
            "required": 0,
            "conditional_logic": 0,
            "wrapper": {
                "width": "50",
                "class": "",
                "id": ""
            },
            "choices": {
                "water": "Water",
                "wegen": "Wegen",
                "ondergrond": "Ondergrond",
                "milieu": "Milieu",
                "infrastructuur": "Infrastructuur"
            },
            "default_value": [],
            "allow_null": 1,
            "multiple": 1,
            "ui": 1,
            "ajax": 0,
            "return_format": "value",
            "placeholder": ""
        },
        {
            "key": "field_5f1aa66e0b86c",
            "label": "Overzicht afbeelding",
            "name": "featured_image",
            "type": "image",
            "instructions": "Deze afbeelding wordt gebruikt voor het overzicht en zal een afmeting van 300x300 moeten hebben",
            "required": 0,
            "conditional_logic": 0,
            "wrapper": {
                "width": "50",
                "class": "",
                "id": ""
            },
            "return_format": "array",
            "preview_size": "medium",
            "library": "all",
            "min_width": "",
            "min_height": "",
            "min_size": "",
            "max_width": "",
            "max_height": "",
            "max_size": "",
            "mime_types": ""
        },
        {
            "key": "field_5ead7cc6c59b6",
            "label": "afbeelding",
            "name": "afbeelding",
            "type": "image",
            "instructions": "Deze afbeelding wordt gebruikt in de header op de detailpagina van het project",
            "required": 0,
            "conditional_logic": 0,
            "wrapper": {
                "width": "50",
                "class": "",
                "id": ""
            },
            "return_format": "array",
            "preview_size": "medium",
            "library": "all",
            "min_width": "",
            "min_height": "",
            "min_size": "",
            "max_width": "",
            "max_height": "",
            "max_size": "",
            "mime_types": ""
        },
        {
            "key": "field_5f118930e9552",
            "label": "Opdrachtgever",
            "name": "opdrachtgever",
            "type": "text",
            "instructions": "",
            "required": 0,
            "conditional_logic": 0,
            "wrapper": {
                "width": "25",
                "class": "",
                "id": ""
            },
            "default_value": "",
            "placeholder": "",
            "prepend": "",
            "append": "",
            "maxlength": ""
        },
        {
            "key": "field_5f11894ae9553",
            "label": "Locatie",
            "name": "locatie",
            "type": "text",
            "instructions": "",
            "required": 0,
            "conditional_logic": 0,
            "wrapper": {
                "width": "25",
                "class": "",
                "id": ""
            },
            "default_value": "",
            "placeholder": "",
            "prepend": "",
            "append": "",
            "maxlength": ""
        },
        {
            "key": "field_5f118952e9554",
            "label": "Werkzaamheden",
            "name": "werkzaamheden",
            "type": "text",
            "instructions": "",
            "required": 0,
            "conditional_logic": 0,
            "wrapper": {
                "width": "25",
                "class": "",
                "id": ""
            },
            "default_value": "",
            "placeholder": "",
            "prepend": "",
            "append": "",
            "maxlength": ""
        },
        {
            "key": "field_5f11876c7e2a8",
            "label": "status",
            "name": "status",
            "type": "select",
            "instructions": "",
            "required": 0,
            "conditional_logic": 0,
            "wrapper": {
                "width": "25",
                "class": "",
                "id": ""
            },
            "choices": {
                "doing": "In ontwikkeling",
                "done": "Afgerond"
            },
            "default_value": [
                "doing"
            ],
            "allow_null": 0,
            "multiple": 0,
            "ui": 0,
            "return_format": "value",
            "ajax": 0,
            "placeholder": ""
        },
        {
            "key": "field_5ead7c59c59b2",
            "label": "Inhoud",
            "name": "",
            "type": "tab",
            "instructions": "",
            "required": 0,
            "conditional_logic": 0,
            "wrapper": {
                "width": "",
                "class": "",
                "id": ""
            },
            "placement": "top",
            "endpoint": 0
        },
        {
            "key": "field_5ead7c38c59b0",
            "label": "flexibele inhoud",
            "name": "flexible_content",
            "type": "flexible_content",
            "instructions": "",
            "required": 0,
            "conditional_logic": 0,
            "wrapper": {
                "width": "",
                "class": "",
                "id": ""
            },
            "layouts": {
                "layout_5ead7c499c90c": {
                    "key": "layout_5ead7c499c90c",
                    "name": "tekstblok",
                    "label": "tekstblok",
                    "display": "block",
                    "sub_fields": [
                        {
                            "key": "field_5f12d9f296157",
                            "label": "Ruimte onder sectie",
                            "name": "spacing",
                            "type": "select",
                            "instructions": "",
                            "required": 0,
                            "conditional_logic": 0,
                            "wrapper": {
                                "width": "",
                                "class": "",
                                "id": ""
                            },
                            "choices": {
                                "none": "Geen",
                                "small": "Klein",
                                "normal": "normaal"
                            },
                            "default_value": [
                                "normal"
                            ],
                            "allow_null": 0,
                            "multiple": 0,
                            "ui": 0,
                            "return_format": "value",
                            "ajax": 0,
                            "placeholder": ""
                        },
                        {
                            "key": "field_5ead7d19c59b7",
                            "label": "tekst",
                            "name": "tekst",
                            "type": "wysiwyg",
                            "instructions": "",
                            "required": 0,
                            "conditional_logic": 0,
                            "wrapper": {
                                "width": "",
                                "class": "",
                                "id": ""
                            },
                            "default_value": "",
                            "tabs": "all",
                            "toolbar": "full",
                            "media_upload": 1,
                            "delay": 0
                        }
                    ],
                    "min": "",
                    "max": ""
                },
                "layout_5ead7d29c59b8": {
                    "key": "layout_5ead7d29c59b8",
                    "name": "tekst_afbeelding",
                    "label": "tekst + afbeelding of video",
                    "display": "block",
                    "sub_fields": [
                        {
                            "key": "field_5ead7d3fc59bb",
                            "label": "layout",
                            "name": "layout",
                            "type": "select",
                            "instructions": "",
                            "required": 0,
                            "conditional_logic": 0,
                            "wrapper": {
                                "width": "50",
                                "class": "",
                                "id": ""
                            },
                            "choices": {
                                "text_left": "Tekst links, afbeelding rechts",
                                "text_right": "Tekst rechts, afbeelding links"
                            },
                            "default_value": [
                                "text_left"
                            ],
                            "allow_null": 0,
                            "multiple": 0,
                            "ui": 0,
                            "return_format": "value",
                            "ajax": 0,
                            "placeholder": ""
                        },
                        {
                            "key": "field_5f12dc4796158",
                            "label": "Ruimte onder sectie",
                            "name": "spacing",
                            "type": "select",
                            "instructions": "",
                            "required": 0,
                            "conditional_logic": 0,
                            "wrapper": {
                                "width": "50",
                                "class": "",
                                "id": ""
                            },
                            "choices": {
                                "none": "Geen",
                                "small": "Klein",
                                "normal": "normaal"
                            },
                            "default_value": [
                                "normal"
                            ],
                            "allow_null": 0,
                            "multiple": 0,
                            "ui": 0,
                            "return_format": "value",
                            "ajax": 0,
                            "placeholder": ""
                        },
                        {
                            "key": "field_5ead7d31c59b9",
                            "label": "tekst",
                            "name": "tekst",
                            "type": "wysiwyg",
                            "instructions": "",
                            "required": 0,
                            "conditional_logic": 0,
                            "wrapper": {
                                "width": "",
                                "class": "",
                                "id": ""
                            },
                            "default_value": "",
                            "tabs": "all",
                            "toolbar": "full",
                            "media_upload": 1,
                            "delay": 0
                        },
                        {
                            "key": "field_5ead7d39c59ba",
                            "label": "afbeelding",
                            "name": "afbeelding",
                            "type": "image",
                            "instructions": "",
                            "required": 0,
                            "conditional_logic": [
                                [
                                    {
                                        "field": "field_5f4a4d3612d53",
                                        "operator": "!=",
                                        "value": "1"
                                    }
                                ]
                            ],
                            "wrapper": {
                                "width": "",
                                "class": "",
                                "id": ""
                            },
                            "return_format": "array",
                            "preview_size": "medium",
                            "library": "all",
                            "min_width": "",
                            "min_height": "",
                            "min_size": "",
                            "max_width": "",
                            "max_height": "",
                            "max_size": "",
                            "mime_types": ""
                        },
                        {
                            "key": "field_5f4a4d3612d53",
                            "label": "vervang afbeelding door video",
                            "name": "vervang_afbeelding_door_video",
                            "type": "true_false",
                            "instructions": "",
                            "required": 0,
                            "conditional_logic": 0,
                            "wrapper": {
                                "width": "30",
                                "class": "",
                                "id": ""
                            },
                            "message": "",
                            "default_value": 0,
                            "ui": 1,
                            "ui_on_text": "",
                            "ui_off_text": ""
                        },
                        {
                            "key": "field_5f4a4d4612d54",
                            "label": "Vimeo ID",
                            "name": "vimeo_id",
                            "type": "text",
                            "instructions": "",
                            "required": 0,
                            "conditional_logic": [
                                [
                                    {
                                        "field": "field_5f4a4d3612d53",
                                        "operator": "==",
                                        "value": "1"
                                    }
                                ]
                            ],
                            "wrapper": {
                                "width": "70",
                                "class": "",
                                "id": ""
                            },
                            "default_value": "",
                            "placeholder": "",
                            "prepend": "",
                            "append": "",
                            "maxlength": ""
                        }
                    ],
                    "min": "",
                    "max": ""
                },
                "layout_5f118e5cc7770": {
                    "key": "layout_5f118e5cc7770",
                    "name": "afbeeldingen",
                    "label": "Afbeelding(en)",
                    "display": "block",
                    "sub_fields": [
                        {
                            "key": "field_5f118e78c7771",
                            "label": "hoeveelheid",
                            "name": "hoeveelheid",
                            "type": "select",
                            "instructions": "Hoeveel afbeeldingen moet deze sectie tonen?",
                            "required": 0,
                            "conditional_logic": 0,
                            "wrapper": {
                                "width": "25",
                                "class": "",
                                "id": ""
                            },
                            "choices": {
                                "1": "1",
                                "2": "2"
                            },
                            "default_value": [
                                1
                            ],
                            "allow_null": 0,
                            "multiple": 0,
                            "ui": 0,
                            "return_format": "value",
                            "ajax": 0,
                            "placeholder": ""
                        },
                        {
                            "key": "field_5f12dc5d96159",
                            "label": "Ruimte onder sectie",
                            "name": "spacing",
                            "type": "select",
                            "instructions": "",
                            "required": 0,
                            "conditional_logic": 0,
                            "wrapper": {
                                "width": "25",
                                "class": "",
                                "id": ""
                            },
                            "choices": {
                                "none": "Geen",
                                "small": "Klein",
                                "normal": "normaal"
                            },
                            "default_value": [
                                "normal"
                            ],
                            "allow_null": 0,
                            "multiple": 0,
                            "ui": 0,
                            "return_format": "value",
                            "ajax": 0,
                            "placeholder": ""
                        },
                        {
                            "key": "field_5f11920b97390",
                            "label": "layout",
                            "name": "layout",
                            "type": "select",
                            "instructions": "",
                            "required": 0,
                            "conditional_logic": [
                                [
                                    {
                                        "field": "field_5f118e78c7771",
                                        "operator": "==",
                                        "value": "2"
                                    }
                                ]
                            ],
                            "wrapper": {
                                "width": "25",
                                "class": "",
                                "id": ""
                            },
                            "choices": {
                                "same": "Beide afbeeldingen even breed",
                                "left_wide": "Linker afbeelding breder",
                                "right_wide": "Rechter afbeelding breder"
                            },
                            "default_value": [
                                "same"
                            ],
                            "allow_null": 0,
                            "multiple": 0,
                            "ui": 0,
                            "return_format": "value",
                            "ajax": 0,
                            "placeholder": ""
                        },
                        {
                            "key": "field_5f12f34eb4d1b",
                            "label": "Op mobiel naast elkaar plaatsen",
                            "name": "mobile_flex",
                            "type": "true_false",
                            "instructions": "",
                            "required": 0,
                            "conditional_logic": 0,
                            "wrapper": {
                                "width": "25",
                                "class": "",
                                "id": ""
                            },
                            "message": "",
                            "default_value": 0,
                            "ui": 1,
                            "ui_on_text": "",
                            "ui_off_text": ""
                        },
                        {
                            "key": "field_5f119161c7776",
                            "label": "afbeelding 1",
                            "name": "afbeelding_1",
                            "type": "image",
                            "instructions": "",
                            "required": 0,
                            "conditional_logic": 0,
                            "wrapper": {
                                "width": "",
                                "class": "",
                                "id": ""
                            },
                            "return_format": "array",
                            "preview_size": "medium",
                            "library": "all",
                            "min_width": "",
                            "min_height": "",
                            "min_size": "",
                            "max_width": "",
                            "max_height": "",
                            "max_size": "",
                            "mime_types": ""
                        },
                        {
                            "key": "field_5f119169c7777",
                            "label": "afbeelding 2",
                            "name": "afbeelding_2",
                            "type": "image",
                            "instructions": "",
                            "required": 0,
                            "conditional_logic": [
                                [
                                    {
                                        "field": "field_5f118e78c7771",
                                        "operator": "==",
                                        "value": "2"
                                    }
                                ],
                                [
                                    {
                                        "field": "field_5f118e78c7771",
                                        "operator": "==",
                                        "value": "3"
                                    }
                                ]
                            ],
                            "wrapper": {
                                "width": "",
                                "class": "",
                                "id": ""
                            },
                            "return_format": "array",
                            "preview_size": "medium",
                            "library": "all",
                            "min_width": "",
                            "min_height": "",
                            "min_size": "",
                            "max_width": "",
                            "max_height": "",
                            "max_size": "",
                            "mime_types": ""
                        }
                    ],
                    "min": "",
                    "max": ""
                }
            },
            "button_label": "Nieuwe sectie",
            "min": "",
            "max": ""
        },
        {
            "key": "field_5f11909ac7772",
            "label": "Call to action sectie",
            "name": "",
            "type": "tab",
            "instructions": "",
            "required": 0,
            "conditional_logic": 0,
            "wrapper": {
                "width": "",
                "class": "",
                "id": ""
            },
            "placement": "top",
            "endpoint": 0
        },
        {
            "key": "field_5f1190a6c7773",
            "label": "Toon sectie",
            "name": "toon_sectie",
            "type": "true_false",
            "instructions": "",
            "required": 0,
            "conditional_logic": 0,
            "wrapper": {
                "width": "",
                "class": "",
                "id": ""
            },
            "message": "",
            "default_value": 1,
            "ui": 1,
            "ui_on_text": "",
            "ui_off_text": ""
        },
        {
            "key": "field_5f1190b4c7774",
            "label": "Sectie titel",
            "name": "sectie_titel",
            "type": "wysiwyg",
            "instructions": "",
            "required": 0,
            "conditional_logic": 0,
            "wrapper": {
                "width": "",
                "class": "",
                "id": ""
            },
            "default_value": "Uw ruimte tot leven brengen?",
            "tabs": "all",
            "toolbar": "full",
            "media_upload": 1,
            "delay": 0
        },
        {
            "key": "field_5f1190ebc7775",
            "label": "sectie subtitel",
            "name": "sectie_subtitel",
            "type": "text",
            "instructions": "",
            "required": 0,
            "conditional_logic": 0,
            "wrapper": {
                "width": "",
                "class": "",
                "id": ""
            },
            "default_value": "Passie, professionaliteit en samenwerking. Dat is waar Atab Civiele Techniek B.V. voor staat.",
            "placeholder": "",
            "prepend": "",
            "append": "",
            "maxlength": ""
        }
    ],
    "location": [
        [
            {
                "param": "post_type",
                "operator": "==",
                "value": "project"
            }
        ]
    ],
    "menu_order": 0,
    "position": "acf_after_title",
    "style": "default",
    "label_placement": "top",
    "instruction_placement": "label",
    "hide_on_screen": [
        "the_content",
        "excerpt"
    ],
    "active": true,
    "description": "",
    "modified": 1598705040
}