{
    "key": "group_5efeeb82a42c6",
    "title": "video header",
    "fields": [
        {
            "key": "field_5efeeb87a5bd1",
            "label": "vimeo ID",
            "name": "vimeo_id",
            "type": "text",
            "instructions": "",
            "required": 0,
            "conditional_logic": 0,
            "wrapper": {
                "width": "",
                "class": "",
                "id": ""
            },
            "default_value": "",
            "placeholder": "",
            "prepend": "",
            "append": "",
            "maxlength": ""
        }
    ],
    "location": [
        [
            {
                "param": "page",
                "operator": "==",
                "value": "18"
            }
        ],
        [
            {
                "param": "page",
                "operator": "==",
                "value": "125"
            }
        ],
        [
            {
                "param": "page",
                "operator": "==",
                "value": "505"
            }
        ],
        [
            {
                "param": "page",
                "operator": "==",
                "value": "41"
            }
        ]
    ],
    "menu_order": 0,
    "position": "acf_after_title",
    "style": "default",
    "label_placement": "top",
    "instruction_placement": "label",
    "hide_on_screen": "",
    "active": 1,
    "description": "",
    "modified": 1598693000
}